EESchema Schematic File Version 4
EELAYER 30 0
EELAYER END
$Descr A4 11693 8268
encoding utf-8
Sheet 1 1
Title ""
Date ""
Rev ""
Comp ""
Comment1 ""
Comment2 ""
Comment3 ""
Comment4 ""
$EndDescr
$Comp
L ESP32-footprints-Shem-Lib:ESP32-WROOM U2
U 1 1 5E61F0BA
P 6800 4050
F 0 "U2" H 6775 5437 60  0000 C CNN
F 1 "ESP32-WROOM" H 6775 5331 60  0000 C CNN
F 2 "ESP32-footprints-Lib:ESP32-WROOM_FAB" H 7150 5400 60  0001 C CNN
F 3 "" H 6350 4500 60  0001 C CNN
	1    6800 4050
	1    0    0    -1  
$EndComp
$Comp
L Connector:Conn_01x09_Female J2
U 1 1 5E620220
P 6850 5700
F 0 "J2" H 6878 5726 50  0000 L CNN
F 1 "Conn_01x09_Female" H 6878 5635 50  0000 L CNN
F 2 "Connector_PinHeader_2.54mm:PinHeader_1x09_P2.54mm_Vertical" H 8150 5500 50  0000 C CNN
F 3 "~" H 6850 5700 50  0001 C CNN
	1    6850 5700
	0    1    1    0   
$EndComp
$Comp
L Connector:Conn_01x11_Female J1
U 1 1 5E6215E7
P 4800 4150
F 0 "J1" H 4828 4176 50  0000 L CNN
F 1 "Conn_01x11_Female" H 4828 4085 50  0000 L CNN
F 2 "Connector_PinHeader_2.54mm:PinHeader_1x11_P2.54mm_Vertical" H 4850 3250 50  0000 C CNN
F 3 "~" H 4800 4150 50  0001 C CNN
	1    4800 4150
	-1   0    0    1   
$EndComp
$Comp
L Connector:Conn_01x13_Female J3
U 1 1 5E622FCE
P 9050 4050
F 0 "J3" H 9078 4076 50  0000 L CNN
F 1 "Conn_01x13_Female" H 9078 3985 50  0000 L CNN
F 2 "Connector_PinHeader_2.54mm:PinHeader_1x13_P2.54mm_Vertical" H 10300 3850 50  0000 C CNN
F 3 "~" H 9050 4050 50  0001 C CNN
	1    9050 4050
	1    0    0    -1  
$EndComp
Wire Notes Line
	600  650  3800 650 
Wire Notes Line
	3800 650  3800 2550
Wire Notes Line
	3800 2550 600  2550
Wire Notes Line
	600  2550 600  650 
Text GLabel 3500 1400 2    50   Input ~ 0
3v3
Text GLabel 3450 2050 2    50   Input ~ 0
GND
$Comp
L fab:FTDI-SMD-HEADER M3
U 1 1 5E63C4CA
P 1200 1100
F 0 "M3" H 1200 1100 45  0001 C CNN
F 1 "FTDI-SMD-HEADER" H 1200 1100 45  0001 C CNN
F 2 "fab-1X06SMD" H 1230 1250 20  0001 C CNN
F 3 "" H 1200 1100 50  0001 C CNN
	1    1200 1100
	-1   0    0    1   
$EndComp
Wire Wire Line
	2750 950  2650 950 
$Comp
L fab:RES-US1206FAB R2
U 1 1 5E63EB65
P 5100 1950
F 0 "R2" H 5100 2144 45  0000 C CNN
F 1 "10k" H 5150 2050 45  0000 C CNN
F 2 "fab-R1206FAB" H 5130 2100 20  0001 C CNN
F 3 "" H 5100 1950 50  0001 C CNN
	1    5100 1950
	1    0    0    -1  
$EndComp
$Comp
L fab:LEDFAB1206 M2
U 1 1 5E63F55A
P 5850 5600
F 0 "M2" H 5927 5692 45  0000 L CNN
F 1 "LEDFAB1206" H 5927 5608 45  0000 L CNN
F 2 "fab-LED1206FAB" H 5880 5750 20  0001 C CNN
F 3 "" H 5850 5600 50  0001 C CNN
	1    5850 5600
	1    0    0    -1  
$EndComp
$Comp
L fab:LEDFAB1206 M1
U 1 1 5E63F9C4
P 3250 1800
F 0 "M1" H 3327 1892 45  0000 L CNN
F 1 "LEDFAB1206" H 3327 1808 45  0000 L CNN
F 2 "fab-LED1206FAB" H 3280 1950 20  0001 C CNN
F 3 "" H 3250 1800 50  0001 C CNN
	1    3250 1800
	1    0    0    -1  
$EndComp
Text GLabel 8650 3100 2    50   Input ~ 0
GND
Text GLabel 9000 3250 0    50   Input ~ 0
3v3
Wire Wire Line
	8850 3450 8850 3350
Wire Wire Line
	8850 3350 9150 3350
Wire Wire Line
	9150 3350 9150 3250
Wire Wire Line
	9150 3250 9000 3250
Wire Wire Line
	8850 3550 8650 3550
Wire Wire Line
	8650 3550 8650 3100
Wire Wire Line
	7700 3300 8550 3300
Wire Wire Line
	8550 3300 8550 3650
Wire Wire Line
	8550 3650 8850 3650
Wire Wire Line
	7700 3400 8450 3400
Wire Wire Line
	8450 3400 8450 3750
Wire Wire Line
	8450 3750 8850 3750
Wire Wire Line
	7700 3500 8100 3500
Wire Wire Line
	8350 3500 8350 3850
Wire Wire Line
	8350 3850 8850 3850
Wire Wire Line
	7700 3600 7900 3600
Wire Wire Line
	8250 3600 8250 3950
Wire Wire Line
	8250 3950 8850 3950
Wire Wire Line
	7700 3700 8150 3700
Wire Wire Line
	8150 3700 8150 4050
Wire Wire Line
	8150 4050 8850 4050
Wire Wire Line
	7700 3900 8100 3900
Wire Wire Line
	8100 3900 8100 4150
Wire Wire Line
	8100 4150 8850 4150
Wire Wire Line
	7700 4000 8000 4000
Wire Wire Line
	8000 4250 8850 4250
Wire Wire Line
	8000 4000 8000 4250
Wire Wire Line
	7700 4100 7900 4100
Wire Wire Line
	7900 4100 7900 4350
Wire Wire Line
	7900 4350 8850 4350
Wire Wire Line
	7700 4200 7850 4200
Wire Wire Line
	7850 4450 8850 4450
Wire Wire Line
	7850 4200 7850 4450
Wire Wire Line
	7800 4300 7800 4550
Wire Wire Line
	7800 4550 8850 4550
Wire Wire Line
	7700 4300 7800 4300
Text GLabel 7800 4950 2    50   Input ~ 0
GND
Wire Wire Line
	7800 4700 7700 4700
Wire Wire Line
	7800 4650 7700 4650
Wire Wire Line
	7700 4650 7700 4600
Wire Wire Line
	7800 4650 7800 4700
Connection ~ 7800 4700
Wire Wire Line
	7800 4700 7800 4950
Text GLabel 8000 4800 2    50   Input ~ 0
PROG
Wire Wire Line
	7700 4400 7750 4400
Wire Wire Line
	7750 4400 7750 4600
Wire Wire Line
	7750 4600 8850 4600
Wire Wire Line
	8850 4600 8850 4650
Wire Wire Line
	8000 4800 8000 4500
Wire Wire Line
	8000 4500 7700 4500
Text GLabel 8300 2900 2    50   Input ~ 0
TX
Text GLabel 8300 3100 2    50   Input ~ 0
RX
Wire Wire Line
	8300 2900 7900 2900
Wire Wire Line
	7900 2900 7900 3600
Connection ~ 7900 3600
Wire Wire Line
	7900 3600 8250 3600
Wire Wire Line
	8300 3100 8100 3100
Wire Wire Line
	8100 3100 8100 3500
Connection ~ 8100 3500
Wire Wire Line
	8100 3500 8350 3500
Text GLabel 5200 3400 0    50   Input ~ 0
3v3
Text GLabel 5200 4850 0    50   Input ~ 0
GND
Wire Wire Line
	5200 4850 5600 4850
Wire Wire Line
	5850 4850 5850 4750
Wire Wire Line
	6350 5100 6350 5250
Wire Wire Line
	6350 5250 5600 5250
Wire Wire Line
	5600 5250 5600 4850
Connection ~ 5600 4850
Wire Wire Line
	5600 4850 5850 4850
Wire Wire Line
	5850 3450 5850 3400
Wire Wire Line
	5850 3400 5200 3400
Text GLabel 5500 3550 0    50   Input ~ 0
RESET
Wire Wire Line
	5500 3550 5850 3550
Wire Wire Line
	5000 3650 5850 3650
Wire Wire Line
	5000 3750 5850 3750
Wire Wire Line
	5000 3850 5850 3850
Wire Wire Line
	5000 3950 5850 3950
Wire Wire Line
	5850 4050 5000 4050
Wire Wire Line
	5850 4150 5000 4150
Wire Wire Line
	5000 4250 5850 4250
Wire Wire Line
	5850 4350 5000 4350
Wire Wire Line
	5000 4450 5850 4450
Wire Wire Line
	5850 4550 5000 4550
Wire Wire Line
	5000 4650 5850 4650
Wire Wire Line
	6450 5500 6450 5400
Wire Wire Line
	6550 5100 6550 5500
Wire Wire Line
	6650 5500 6650 5100
Wire Wire Line
	6750 5100 6750 5500
Wire Wire Line
	6850 5500 6850 5100
Wire Wire Line
	6950 5100 6950 5500
Wire Wire Line
	7050 5500 7050 5100
Wire Wire Line
	7150 5100 7150 5500
Wire Wire Line
	7250 5500 7250 5100
Text GLabel 6200 6700 2    50   Input ~ 0
GND
Wire Wire Line
	5850 5400 6450 5400
Connection ~ 6450 5400
Wire Wire Line
	6450 5400 6450 5100
$Comp
L fab:RES-US1206FAB R3
U 1 1 5E63DD43
P 5850 6150
F 0 "R3" V 5900 6300 45  0000 C CNN
F 1 "100" V 6000 6300 45  0000 C CNN
F 2 "fab-R1206FAB" H 5880 6300 20  0001 C CNN
F 3 "" H 5850 6150 50  0001 C CNN
	1    5850 6150
	0    1    1    0   
$EndComp
Wire Wire Line
	5850 5950 5850 5700
Wire Wire Line
	5850 6700 5850 6350
Wire Wire Line
	5850 6700 6250 6700
Text GLabel 1550 850  2    50   Input ~ 0
RX
Wire Wire Line
	1550 850  1400 850 
Wire Wire Line
	1400 850  1400 1200
Wire Wire Line
	1400 1200 1200 1200
Text GLabel 1650 1000 2    50   Input ~ 0
TX
Wire Wire Line
	1650 1000 1500 1000
Wire Wire Line
	1500 1000 1500 1300
Wire Wire Line
	1500 1300 1200 1300
$Comp
L fab:RES-US1206FAB R1
U 1 1 5E63E46F
P 2850 1750
F 0 "R1" V 2850 1900 45  0000 C CNN
F 1 "100" V 2950 1900 45  0000 C CNN
F 2 "fab-R1206FAB" H 2880 1900 20  0001 C CNN
F 3 "" H 2850 1750 50  0001 C CNN
	1    2850 1750
	0    1    1    0   
$EndComp
$Comp
L fab:CAP-UNPOLARIZEDFAB C1
U 1 1 5E724104
P 2050 1600
F 0 "C1" V 2000 1750 45  0000 C CNN
F 1 "0.1uF" V 2100 1800 45  0000 C CNN
F 2 "fab-C1206FAB" H 2080 1750 20  0001 C CNN
F 3 "" H 2050 1600 50  0001 C CNN
	1    2050 1600
	0    1    1    0   
$EndComp
$Comp
L fab:CAP-UNPOLARIZEDFAB C3
U 1 1 5E724B7C
P 2350 1600
F 0 "C3" V 2300 1750 45  0000 C CNN
F 1 "10uF" V 2400 1750 45  0000 C CNN
F 2 "fab-C1206FAB" H 2380 1750 20  0001 C CNN
F 3 "" H 2350 1600 50  0001 C CNN
	1    2350 1600
	0    1    1    0   
$EndComp
$Comp
L fab:CAP-UNPOLARIZEDFAB C2
U 1 1 5E72548E
P 1450 1900
F 0 "C2" V 1350 1750 45  0000 C CNN
F 1 "10uF" V 1250 1700 45  0000 C CNN
F 2 "fab-C1206FAB" H 1480 2050 20  0001 C CNN
F 3 "" H 1450 1900 50  0001 C CNN
	1    1450 1900
	0    -1   -1   0   
$EndComp
Wire Wire Line
	3500 1400 2850 1400
Wire Wire Line
	1900 1400 2050 1400
Connection ~ 2350 1400
Wire Wire Line
	2850 1550 2850 1400
Connection ~ 2850 1400
Wire Wire Line
	2850 1400 2350 1400
Wire Wire Line
	3450 2050 3250 2050
Wire Wire Line
	1800 2050 1800 2250
Wire Wire Line
	1800 2250 1450 2250
Wire Wire Line
	1450 2250 1450 2100
Wire Wire Line
	3250 2050 3250 1900
Connection ~ 3250 2050
Wire Wire Line
	3250 2050 2350 2050
Wire Wire Line
	3250 1600 3250 1500
Wire Wire Line
	3250 1500 3100 1500
Wire Wire Line
	3100 1500 3100 1950
Wire Wire Line
	3100 1950 2850 1950
Wire Wire Line
	2350 1700 2350 2050
Connection ~ 2350 2050
Wire Wire Line
	2350 2050 2050 2050
Connection ~ 2050 1400
Wire Wire Line
	2050 1400 2350 1400
Wire Wire Line
	2050 1700 2050 2050
Connection ~ 2050 2050
Wire Wire Line
	2050 2050 1850 2050
Wire Bus Line
	4350 650  6950 650 
Wire Bus Line
	6950 650  6950 2400
Wire Bus Line
	6950 2400 4350 2400
Wire Bus Line
	4350 650  4350 2400
Text GLabel 4700 2100 0    50   Input ~ 0
3v3
Text GLabel 6450 1550 2    50   Input ~ 0
GND
Text GLabel 4800 1350 0    50   Input ~ 0
RESET
Wire Wire Line
	4700 2100 4900 2100
Wire Wire Line
	4900 2100 4900 1950
$Comp
L fab:6MM_SWITCH6MM_SWITCH S1
U 1 1 5E79D1D4
P 5750 1350
F 0 "S1" V 5421 1350 45  0000 C CNN
F 1 "6MM_SWITCH6MM_SWITCH" V 5505 1350 45  0000 C CNN
F 2 "fab-6MM_SWITCH" H 5780 1500 20  0001 C CNN
F 3 "" H 5750 1350 50  0001 C CNN
	1    5750 1350
	0    1    1    0   
$EndComp
Wire Wire Line
	4800 1350 5300 1350
Wire Wire Line
	5300 1950 5300 1350
Connection ~ 5300 1350
Wire Wire Line
	5300 1350 5550 1350
Wire Wire Line
	5550 1450 5550 1350
Connection ~ 5550 1350
Wire Wire Line
	5950 1450 5950 1350
Wire Wire Line
	6450 1550 5950 1550
Wire Wire Line
	5950 1550 5950 1450
Connection ~ 5950 1450
Text Label 5550 900  0    50   ~ 0
RESETbutton
Text Label 2200 800  0    50   ~ 0
FTDI
Wire Bus Line
	7800 2400 10500 2400
Wire Bus Line
	10500 2400 10500 650 
Wire Bus Line
	10500 650  7800 650 
Wire Bus Line
	7800 650  7800 2400
Text GLabel 8650 1350 0    50   Input ~ 0
GND
Text GLabel 9600 1450 2    50   Input ~ 0
PROG
$Comp
L fab:SLIDE-SWITCH S2
U 1 1 5E7C41B2
P 9100 1450
F 0 "S2" H 9100 1171 45  0000 C CNN
F 1 "SLIDE-SWITCH" H 9100 1255 45  0000 C CNN
F 2 "fab-AYZ0102AGRLC" H 9130 1600 20  0001 C CNN
F 3 "" H 9100 1450 50  0001 C CNN
	1    9100 1450
	-1   0    0    1   
$EndComp
Wire Wire Line
	8650 1350 8900 1350
Wire Wire Line
	9600 1450 9300 1450
Wire Wire Line
	1900 1500 1900 1400
Wire Wire Line
	1600 1800 1850 1800
Wire Wire Line
	1850 1800 1850 2050
Connection ~ 1850 2050
Wire Wire Line
	1850 2050 1800 2050
Wire Wire Line
	1300 1500 1300 1400
Wire Wire Line
	1300 1400 1250 1400
Wire Wire Line
	1200 1600 1200 2250
Wire Wire Line
	1200 2250 1450 2250
Connection ~ 1450 2250
Wire Wire Line
	1450 1800 1250 1800
Wire Wire Line
	1250 1800 1250 1400
Connection ~ 1250 1400
Wire Wire Line
	1250 1400 1200 1400
$Comp
L fab:RES-US1206FAB R4
U 1 1 5E824CB7
P 1550 4600
F 0 "R4" H 1550 4794 45  0000 C CNN
F 1 "10k" H 1600 4700 45  0000 C CNN
F 2 "fab-R1206FAB" H 1580 4750 20  0001 C CNN
F 3 "" H 1550 4600 50  0001 C CNN
	1    1550 4600
	1    0    0    -1  
$EndComp
Text GLabel 1150 4750 0    50   Input ~ 0
3v3
Text GLabel 2900 4200 2    50   Input ~ 0
GND
Wire Wire Line
	1150 4750 1350 4750
Wire Wire Line
	1350 4750 1350 4600
$Comp
L fab:6MM_SWITCH6MM_SWITCH S3
U 1 1 5E824CC2
P 2200 4000
F 0 "S3" V 1871 4000 45  0000 C CNN
F 1 "6MM_SWITCH6MM_SWITCH" V 1955 4000 45  0000 C CNN
F 2 "fab-6MM_SWITCH" H 2230 4150 20  0001 C CNN
F 3 "" H 2200 4000 50  0001 C CNN
	1    2200 4000
	0    1    1    0   
$EndComp
Wire Wire Line
	1750 4600 1750 4000
Connection ~ 1750 4000
Wire Wire Line
	1750 4000 2000 4000
Wire Wire Line
	2000 4100 2000 4000
Connection ~ 2000 4000
Wire Wire Line
	2400 4100 2400 4000
Wire Wire Line
	2900 4200 2400 4200
Wire Wire Line
	2400 4200 2400 4100
Connection ~ 2400 4100
Text GLabel 1200 4000 0    50   Input ~ 0
BUTTON
Wire Wire Line
	1200 4000 1750 4000
Text GLabel 4550 4550 0    50   Input ~ 0
BUTTON
Wire Wire Line
	4800 4550 4550 4550
$Comp
L fab:LEDFAB1206 M4
U 1 1 5E845BDA
P 3150 6000
F 0 "M4" H 3227 6092 45  0000 L CNN
F 1 "LEDFAB1206" H 3227 6008 45  0000 L CNN
F 2 "fab-LED1206FAB" H 3180 6150 20  0001 C CNN
F 3 "" H 3150 6000 50  0001 C CNN
	1    3150 6000
	1    0    0    -1  
$EndComp
Text GLabel 3500 7100 2    50   Input ~ 0
GND
$Comp
L fab:RES-US1206FAB R5
U 1 1 5E845BE2
P 3150 6550
F 0 "R5" V 3200 6700 45  0000 C CNN
F 1 "100" V 3300 6700 45  0000 C CNN
F 2 "fab-R1206FAB" H 3180 6700 20  0001 C CNN
F 3 "" H 3150 6550 50  0001 C CNN
	1    3150 6550
	0    1    1    0   
$EndComp
Wire Wire Line
	3150 6350 3150 6100
Wire Wire Line
	3150 7100 3150 6750
Wire Wire Line
	3150 7100 3550 7100
Text GLabel 4000 5800 2    50   Input ~ 0
LED
Wire Wire Line
	3150 5800 4000 5800
Text GLabel 4400 3850 0    50   Input ~ 0
LED
Wire Wire Line
	4800 3850 4400 3850
$Comp
L Regulator_Linear:NCP1117-12_SOT223 U1
U 1 1 5E862113
P 1600 1500
F 0 "U1" H 1600 1742 50  0000 C CNN
F 1 "NCP1117-12_SOT223" H 1600 1651 50  0000 C CNN
F 2 "Package_TO_SOT_SMD:SOT-223-3_TabPin2" H 1600 1700 50  0001 C CNN
F 3 "http://www.onsemi.com/pub_link/Collateral/NCP1117-D.PDF" H 1700 1250 50  0001 C CNN
	1    1600 1500
	1    0    0    -1  
$EndComp
Wire Bus Line
	750  3350 3500 3350
Wire Bus Line
	3500 3350 3500 5050
Wire Bus Line
	3500 5050 750  5050
Wire Bus Line
	750  5050 750  3350
Wire Bus Line
	2900 5500 2950 5500
Wire Bus Line
	4400 5500 4400 7450
Wire Bus Line
	4400 7450 2950 7450
Wire Bus Line
	2950 7450 2950 5500
Connection ~ 2950 5500
Wire Bus Line
	2950 5500 4400 5500
$EndSCHEMATC
